module gtermreplay

go 1.14

require (
	fyne.io/fyne v1.3.2
	github.com/go-gl/glfw/v3.3/glfw v0.0.0-20200707082815-5321531c36a2 // indirect
	github.com/stretchr/testify v1.6.1 // indirect
	golang.org/x/image v0.0.0-20200618115811-c13761719519 // indirect
	golang.org/x/net v0.0.0-20200707034311-ab3426394381 // indirect
	golang.org/x/sys v0.0.0-20200625212154-ddb9806d33ae // indirect
	golang.org/x/text v0.3.3 // indirect
	gopkg.in/yaml.v2 v2.3.0 // indirect
	gopkg.in/yaml.v3 v3.0.0-20200615113413-eeeca48fe776 // indirect
)
